<svg width="39" height="34" viewBox="0 0 39 34" fill="none" xmlns="http://www.w3.org/2000/svg">
<path d="M0.00111389 29.0035C0.0269451 29.0561 0.0607243 29.1068 0.0786076 29.1634C0.389576 30.147 1.11285 30.7858 2.13617 30.8216C3.58669 30.8723 5.0392 30.8425 6.49072 30.8434C6.57517 30.8434 6.65962 30.8117 6.78083 30.7878C6.78083 30.6527 6.78083 30.5196 6.78083 30.3874C6.78083 28.464 6.74407 26.5396 6.78878 24.6181C6.84243 22.3251 7.32527 20.1374 8.68539 18.2259C9.07286 17.6814 9.51298 17.1747 9.9541 16.6204C9.40171 16.1276 8.74003 15.7789 7.98695 15.6437C6.6467 15.4023 5.2856 15.3665 3.95231 15.6229C1.94343 16.0093 0.407461 17.6834 0.0686741 19.7072C0.0567522 19.7777 0.0229731 19.8443 0.00012207 19.9128C0.0011158 22.9431 0.00111389 25.9733 0.00111389 29.0035Z" fill="#FF7A00"/>
<path d="M19.5232 33.232C21.7824 33.232 24.0427 33.238 26.3019 33.23C27.67 33.2251 28.6535 32.5495 29.0122 31.3841C29.0768 31.1725 29.1274 30.9469 29.1284 30.7284C29.1374 28.6062 29.198 26.4811 29.1195 24.362C28.9933 20.9612 27.4981 18.3284 24.4927 16.6275C23.2618 15.931 21.9235 15.5833 20.5207 15.4909C18.8943 15.3836 17.26 15.3608 15.6703 15.7552C12.2725 16.5977 9.34566 19.9468 9.11417 23.434C8.95123 25.8939 9.03866 28.3708 9.04264 30.8406C9.04363 31.1605 9.19067 31.4884 9.30989 31.7974C9.58311 32.5048 10.1117 32.9558 10.8598 33.0264C12.1046 33.1446 13.3555 33.232 14.6053 33.2608C16.2436 33.2996 17.8829 33.2708 19.5212 33.2708C19.5232 33.2578 19.5232 33.2449 19.5232 33.232Z" fill="#FF7A00"/>
<path d="M19.0839 2.30246e-06C15.4904 -0.00297823 12.5943 2.88814 12.5943 6.4767C12.5943 10.0533 15.5162 12.9693 19.0888 12.9584C22.6546 12.9474 25.5526 10.0484 25.5586 6.48862C25.5645 2.89906 22.6744 0.00298283 19.0839 2.30246e-06Z" fill="#FF7A00"/>
<path d="M28.1537 16.6442C29.6599 18.1673 30.6246 19.9278 31.0548 21.9724C31.3946 23.5859 31.4204 25.2242 31.4174 26.8635C31.4154 28.165 31.4174 29.4665 31.4174 30.8107C31.5565 30.8236 31.7254 30.8514 31.8933 30.8514C33.2087 30.8534 34.5251 30.8614 35.8405 30.8445C37.2563 30.8266 38.1514 29.9046 38.1514 28.4869C38.1534 25.868 38.1544 23.2481 38.1514 20.6292C38.1485 17.7609 36.0233 15.5553 33.163 15.5096C32.1268 15.4928 31.0816 15.5603 30.0523 15.6815C29.345 15.765 28.7369 16.1594 28.1537 16.6442Z" fill="#FF7A00"/>
<path d="M32.2077 4.76884C29.9415 4.7589 28.1015 6.57902 28.0936 8.84024C28.0856 11.0995 29.9067 12.9365 32.1729 12.9574C34.4153 12.9782 36.2801 11.1283 36.2881 8.87502C36.296 6.61279 34.4739 4.77977 32.2077 4.76884Z" fill="#FF7A00"/>
<path d="M5.95237 4.76882C3.68419 4.77577 1.8601 6.60483 1.86606 8.86804C1.87202 11.1233 3.72591 12.9693 5.97323 12.9573C8.23248 12.9454 10.0655 11.1024 10.0605 8.84718C10.0556 6.58794 8.21658 4.76186 5.95237 4.76882Z" fill="#FF7A00"/>
</svg>
