<svg width="49" height="45" viewBox="0 0 49 45" fill="none" xmlns="http://www.w3.org/2000/svg">
<path d="M30.6245 22.3433C30.6245 28.9477 30.6245 35.5534 30.6245 42.1579C30.6245 43.721 29.7744 44.5007 28.066 44.5019C25.3845 44.5032 22.7043 44.5032 20.0228 44.5019C18.3608 44.5007 17.5053 43.7059 17.5039 42.168C17.5039 28.9111 17.5039 15.6543 17.5039 2.39742C17.5039 0.865841 18.3622 0.0798668 20.0365 0.0786052C22.7344 0.0773436 25.4323 0.076082 28.1316 0.0786052C29.7635 0.0798668 30.6245 0.878457 30.6245 2.38733C30.6245 9.03972 30.6245 15.6921 30.6245 22.3433Z" fill="#FF7A00"/>
<path d="M35.007 27.3429C35.007 22.4088 35.0412 17.4747 34.9865 12.5406C34.9688 10.9737 36.1209 10.1247 37.5806 10.16C40.2935 10.2243 43.0106 10.1764 45.7263 10.1789C47.2201 10.1802 48.1249 11.0015 48.1249 12.3842C48.129 22.347 48.129 32.3098 48.1249 42.2727C48.1249 43.6756 47.2201 44.4981 45.6908 44.5006C42.9409 44.5057 40.1924 44.5044 37.4425 44.5006C35.8776 44.4981 35.0084 43.6907 35.0084 42.2399C35.0057 37.2742 35.007 32.3086 35.007 27.3429Z" fill="#FF7A00"/>
<path d="M13.1213 33.3835C13.1213 36.3306 13.124 39.2789 13.1199 42.226C13.1186 43.7033 12.2534 44.4994 10.6502 44.5007C7.91815 44.5032 5.18606 44.5045 2.45396 44.5007C0.895892 44.4981 0.0020501 43.6768 0.0020501 42.2412C-0.000683365 36.3457 -0.000683365 30.4515 0.0020501 24.5561C0.0020501 23.1065 0.882224 22.2903 2.4362 22.2903C5.20246 22.289 7.96872 22.2878 10.735 22.2903C12.2384 22.2915 13.1172 23.0977 13.1199 24.493C13.1254 27.4578 13.1213 30.42 13.1213 33.3835Z" fill="#FF7A00"/>
</svg>
